/* XPM */
static char * workspacebuttonactive_xpm[] = {
"1 27 2 1",
" 	c None",
".	c #A0A0A3",
".",
".",
".",
".",
".",
".",
".",
".",
".",
".",
".",
".",
".",
".",
".",
".",
".",
".",
".",
".",
".",
".",
".",
".",
".",
".",
"."};
