/* XPM */
static char * maximizeO_xpm[] = {
"24 96 3 1",
" 	c None",
".	c #3B3C37",
"+	c #FFFFFF",
"........................",
"........................",
"........................",
"........................",
"........................",
"......++++++++++++......",
"......++++++++++++......",
"......++++++++++++......",
"......+..........+......",
"......+..........+......",
"......+..........+......",
"......+..........+......",
"......+..........+......",
"......+..........+......",
"......+..........+......",
"......+..........+......",
"......++++++++++++......",
"........................",
"........................",
"........................",
"........................",
"........................",
"........................",
"........................",
"........................",
"........................",
"........................",
"........................",
"........................",
"........................",
"........................",
"........................",
"........................",
"........................",
"........................",
"........................",
"........................",
"........................",
"........................",
"........................",
"........................",
"........................",
"........................",
"........................",
"........................",
"........................",
"........................",
"........................",
"........................",
"........................",
"........................",
"........................",
"........................",
"........................",
".......+++++++++++......",
".......+++++++++++......",
".......+++++++++++......",
".......+.........+......",
".......+.........+......",
".......+.........+......",
".......+.........+......",
".......+.........+......",
".......+.........+......",
".......+.........+......",
".......+++++++++++......",
"........................",
"........................",
"........................",
"........................",
"........................",
"........................",
"........................",
"........................",
"........................",
"........................",
"........................",
"........................",
"........................",
"........................",
"........................",
"........................",
"........................",
"........................",
"........................",
"........................",
"........................",
"........................",
"........................",
"........................",
"........................",
"........................",
"........................",
"........................",
"........................",
"........................",
"........................"};
