/* XPM */
static char * workspacebuttonbg_xpm[] = {
"1 27 2 1",
" 	c None",
".	c #3B3C37",
".",
".",
".",
".",
".",
".",
".",
".",
".",
".",
".",
".",
".",
".",
".",
".",
".",
".",
".",
".",
".",
".",
".",
".",
".",
".",
"."};
